<?xml version="1.0" encoding="iso-8859-1"?>
<!-- Generator: Adobe Illustrator 16.0.0, SVG Export Plug-In . SVG Version: 6.00 Build 0)  -->
<!DOCTYPE svg PUBLIC "-//W3C//DTD SVG 1.1//EN" "http://www.w3.org/Graphics/SVG/1.1/DTD/svg11.dtd">
<svg version="1.1" id="Layer_1" xmlns="http://www.w3.org/2000/svg" xmlns:xlink="http://www.w3.org/1999/xlink" x="0px" y="0px"
	 width="603px" height="46px" viewBox="0 0 603 46" style="enable-background:new 0 0 603 46;" xml:space="preserve">
<g>
	<defs>
		<rect id="SVGID_1_" x="0.999" y="0.165" width="600.507" height="46"/>
	</defs>
	<clipPath id="SVGID_2_">
		<use xlink:href="#SVGID_1_"  style="overflow:visible;"/>
	</clipPath>
	<path style="clip-path:url(#SVGID_2_);fill:#264A63;" d="M561.889,41.993v-1.584l-1.291-0.121v-5.947c0-3.145-1.316-4.66-4.18-4.66
		c-1.895,0-3.418,0.586-4.236,0.985v-5.57h-3.406v1.617l1.293,0.1v13.476l-1.293,0.121v1.584h4.676v-1.584l-1.27-0.121v-8.05
		c0.818-0.365,2.33-0.854,3.82-0.854c1.801,0,2.471,0.665,2.471,3.013v7.596H561.889z M546.537,41.982v-1.352
		c-0.383,0.044-1.41,0.1-2.16,0.1c-1.211,0-1.314-0.221-1.314-1.571v-7.541h3.475V29.99h-3.475v-3.134h-2.148v3.134h-2.619v1.451
		l2.619,0.177v7.629c0,2.281,0.855,3.057,3.232,3.057C545.139,42.304,546.201,42.082,546.537,41.982 M537.232,41.993v-1.584
		l-1.27-0.121V29.99h-3.418v1.616l1.271,0.101v7.85c-1.744,0.688-3.061,1.074-4.088,1.074c-1.836,0-2.203-0.798-2.203-2.968V29.99
		h-3.406v1.616l1.293,0.101v5.956c0,2.581,0.635,4.641,3.867,4.641c1.338,0,2.793-0.444,4.537-1.252v0.941H537.232z M520.299,36.866
		c0,2.603-1.039,3.72-3.43,3.72c-2.377,0-3.418-1.117-3.418-3.72v-1.749c0-2.602,1.053-3.72,3.418-3.72
		c2.391,0,3.43,1.118,3.43,3.72V36.866z M522.445,36.866v-1.749c0-3.499-1.895-5.437-5.576-5.437c-3.67,0-5.564,1.938-5.564,5.437
		v1.749c0,3.499,1.895,5.438,5.564,5.438C520.551,42.304,522.445,40.365,522.445,36.866 M511.883,27.388v-1.616h-4.664v1.484
		l1.396,0.121l-2.238,3.743c-0.449,0.764-1.086,1.749-1.408,2.59h-0.141c-0.357-0.853-0.9-1.826-1.35-2.59l-2.273-3.743l1.305-0.121
		v-1.484h-4.688v1.616l1.051,0.089l4.883,8.095v4.661l-1.293,0.1v1.661h4.723v-1.661l-1.271-0.1v-4.661l4.861-8.095L511.883,27.388z
		 M482.053,40.599c-1.867,0-3.496-0.677-3.496-2.48v-0.166c0-1.529,0.715-2.171,2.391-3.024l4.986,4.629
		C485.033,40.232,483.775,40.599,482.053,40.599 M488.611,41.993h2.562V41.64l-2.518-2.304c1.006-1.518,1.408-3.421,1.408-5.337
		l1.307-0.132v-1.496h-4.629v1.496l1.305,0.132c0,1.517-0.197,2.923-0.809,4.041l-5.98-5.524c-1.582-1.484-2.078-2.127-2.078-3.333
		v-0.089c0-1.484,1.211-1.838,3.025-1.838c0.947,0,1.928,0,2.875,0.089l0.266,1.715h1.695v-3.111
		c-1.465-0.32-3.498-0.442-4.928-0.442c-3.094,0-5.16,1.03-5.16,3.588v0.089c0,1.837,1.014,2.956,2.471,4.317l0.172,0.177
		c-2.252,1.219-3.279,2.381-3.279,4.275v0.166c0,3.066,2.645,4.186,5.75,4.186c2.285,0,3.994-0.588,5.205-1.529L488.611,41.993z
		 M469.172,38.97c0-1.871-0.9-2.602-3.947-3.853l-0.947-0.366c-1.848-0.752-2.285-1.129-2.285-2.07c0-1.106,0.795-1.329,2.689-1.329
		c0.484,0,1.443,0.046,2.146,0.09l0.23,1.239h1.664v-2.558c-0.484-0.166-2.379-0.442-4.133-0.442c-3.279,0-4.723,0.985-4.723,3
		c0,1.717,1.072,2.702,3.592,3.688l0.945,0.366c2.217,0.885,2.621,1.207,2.621,2.279c0,1.042-0.555,1.617-2.793,1.617
		c-0.773,0-1.537-0.045-2.299-0.088l-0.23-1.518h-1.662v2.791c0.416,0.132,2.438,0.487,4.27,0.487
		C468.18,42.304,469.172,40.688,469.172,38.97 M455.377,35.106h-6.775v-0.223c0-1.472,0.404-3.499,3.404-3.499
		c3.049,0,3.371,2.027,3.371,3.499V35.106z M457.582,36.723v-0.886c0-4.042-1.754-6.156-5.609-6.156
		c-3.695,0-5.529,2.147-5.529,5.923v0.908c0,3.897,1.35,5.792,5.979,5.792c2.16,0,3.764-0.267,4.664-0.487v-1.572
		c-1.246,0.21-3.105,0.354-4.57,0.354c-3.602,0-3.926-1.573-3.926-3.644v-0.232H457.582z M443.51,25.096h-2.18v2.658h2.18V25.096z
		 M444.734,41.993v-1.616l-1.258-0.089V29.99h-3.416v1.616l1.268,0.101v8.581l-1.268,0.089v1.616H444.734z M437.959,41.993v-1.584
		l-1.271-0.121V25.096h-3.404v1.617l1.293,0.1v13.476l-1.293,0.121v1.584H437.959z M429.959,25.096h-2.158v2.658h2.158V25.096z
		 M431.205,41.993v-1.616l-1.258-0.089V29.99h-3.418v1.616l1.271,0.101v8.581l-1.271,0.089v1.616H431.205z M424.43,41.993v-1.584
		l-1.27-0.121v-6.257c0-1.871,0-4.351-3.809-4.351c-1.201,0-2.518,0.365-4.041,1.295c-0.496-0.797-1.352-1.295-2.873-1.295
		c-1.479,0-2.83,0.531-3.904,1.25v-0.94h-3.381v1.616l1.271,0.101v8.581l-1.271,0.121v1.584h4.674v-1.584l-1.293-0.121v-7.873
		c0.947-0.499,2.275-1.063,3.406-1.063c1.789,0,1.789,0.986,1.789,2.68v7.962h2.125v-7.962c0-0.531,0-1.106-0.094-1.66
		c1.133-0.621,2.391-1.02,3.312-1.02c1.939,0,1.939,0.986,1.939,2.68v7.962H424.43z M399.635,39.822
		c-0.543,0.322-2.08,0.952-3.637,0.952c-1.27,0-2.172-0.365-2.172-1.716v-0.609c0-1.905,1.098-2.214,3.869-2.214h1.939V39.822z
		 M403.051,41.993v-1.584l-1.27-0.121v-6.421c0-2.714-0.703-4.187-5.033-4.187c-2.02,0-3.844,0.398-4.213,0.531v2.469h1.65
		l0.195-1.283c0.797-0.046,1.467-0.057,2.193-0.057c2.611,0,3.061,0.454,3.061,2.526v0.884h-1.939c-3.67,0-6.016,0.543-6.016,3.698
		v0.444c0,2.412,1.443,3.41,3.902,3.41c1.939,0,3.371-0.621,4.145-1.119v0.809H403.051z M389.604,34.485v-1.805h-7.77v-5.115h6.303
		l0.254,1.494h1.709v-3.288h-11.75v1.616l1.291,0.101v12.8l-1.291,0.121v1.584h4.756v-1.584l-1.271-0.121v-5.803H389.604z
		 M371.596,41.993v-1.584l-1.293-0.121v-5.947c0-2.943-0.623-4.66-4.086-4.66c-1.443,0-2.828,0.531-4.33,1.25v-0.94h-3.406v1.616
		l1.271,0.101v8.581l-1.271,0.121v1.584h4.678v-1.584l-1.271-0.121v-7.861c1.721-0.688,3.07-1.075,4.1-1.075
		c1.799,0,2.191,0.798,2.191,2.989v7.652H371.596z M353.945,36.866c0,2.603-1.039,3.72-3.451,3.72c-2.379,0-3.416-1.117-3.416-3.72
		v-1.749c0-2.602,1.072-3.72,3.416-3.72c2.412,0,3.451,1.118,3.451,3.72V36.866z M356.092,36.866v-1.749
		c0-3.499-1.916-5.437-5.598-5.437c-3.648,0-5.541,1.938-5.541,5.437v1.749c0,3.499,1.893,5.438,5.541,5.438
		C354.176,42.304,356.092,40.365,356.092,36.866"/>
	<path style="clip-path:url(#SVGID_2_);fill:#264A63;" d="M599.301,11.444h-6.775v-0.21c0-1.473,0.404-3.499,3.406-3.499
		c3.023,0,3.369,2.026,3.369,3.499V11.444z M601.508,13.061v-0.874c0-4.031-1.756-6.157-5.611-6.157
		c-3.693,0-5.529,2.137-5.529,5.923v0.919c0,3.886,1.352,5.78,5.98,5.78c2.158,0,3.762-0.255,4.662-0.475v-1.573
		c-1.246,0.199-3.105,0.342-4.57,0.342c-3.602,0-3.947-1.572-3.947-3.643v-0.244H601.508z M588.082,15.309
		c0-1.85-0.9-2.592-3.947-3.842l-0.947-0.366c-1.846-0.742-2.264-1.14-2.264-2.082c0-1.085,0.775-1.307,2.668-1.307
		c0.484,0,1.443,0.045,2.146,0.088l0.232,1.219h1.66V6.473c-0.461-0.156-2.377-0.443-4.131-0.443c-3.279,0-4.723,0.986-4.723,2.989
		c0,1.728,1.074,2.713,3.59,3.697l0.947,0.366c2.24,0.875,2.643,1.208,2.643,2.27c0,1.053-0.576,1.617-2.816,1.617
		c-0.773,0-1.535-0.045-2.297-0.088l-0.23-1.507h-1.664v2.802c0.418,0.132,2.438,0.475,4.273,0.475
		C587.09,18.652,588.082,17.035,588.082,15.309 M576.666,18.354v-1.595l-1.293-0.11V6.339h-3.418v1.617l1.293,0.111v7.838
		c-1.742,0.699-3.059,1.064-4.088,1.064c-1.834,0-2.203-0.787-2.203-2.969V6.339h-3.406v1.617l1.293,0.111v5.934
		c0,2.603,0.635,4.651,3.867,4.651c1.318,0,2.795-0.432,4.537-1.241v0.942H576.666z M559.73,13.216c0,2.602-1.039,3.709-3.451,3.709
		c-2.377,0-3.416-1.107-3.416-3.709v-1.749c0-2.591,1.072-3.709,3.416-3.709c2.412,0,3.451,1.118,3.451,3.709V13.216z
		 M561.877,13.216v-1.749c0-3.488-1.914-5.437-5.598-5.437c-3.648,0-5.541,1.949-5.541,5.437v1.749c0,3.499,1.893,5.437,5.541,5.437
		C559.963,18.652,561.877,16.714,561.877,13.216 M549.168,18.354v-1.595l-1.293-0.11V10.68c0-3.145-1.338-4.65-4.178-4.65
		c-1.895,0-3.416,0.586-4.26,0.986v-5.57h-3.383v1.617l1.271,0.11v13.476l-1.271,0.11v1.595h4.676v-1.595l-1.293-0.11V8.588
		c0.844-0.376,2.332-0.853,3.842-0.853c1.803,0,2.449,0.654,2.449,3.012v7.607H549.168z M531.346,10.182
		c0,1.529-0.496,2.535-3.277,2.535c-2.748,0-3.244-1.006-3.244-2.535c0-1.506,0.404-2.536,3.244-2.536
		C530.85,7.646,531.346,8.609,531.346,10.182 M531.75,19.328c0,1.506-0.729,2.292-3.648,2.292c-3.061,0-3.51-0.809-3.51-2.292
		c0-1.062,0.369-1.761,0.82-2.138h2.656C530.988,17.19,531.75,17.567,531.75,19.328 M533.861,19.351
		c0-3.333-2.389-3.753-5.793-3.753h-2.391c-0.854,0-1.213-0.2-1.213-0.809c0-0.344,0.186-0.653,0.543-0.92
		c0.729,0.289,1.742,0.465,3.061,0.465c3.854,0,5.377-1.55,5.377-4.152c0-1.373-0.588-2.226-0.887-2.58l1.385-0.177V6.03h-5.795
		c-4.432,0-5.426,1.816-5.426,4.152c0,1.262,0.312,2.182,0.982,2.856c-0.717,0.444-1.088,1.119-1.088,1.905
		c0,0.763,0.359,1.373,1.053,1.815c-0.762,0.676-1.213,1.649-1.213,2.592c0,2.425,1.42,3.865,5.645,3.865
		S533.861,21.708,533.861,19.351 M520.332,18.354v-1.595l-1.293-0.11V10.68c0-2.922-0.6-4.65-4.084-4.65
		c-1.443,0-2.828,0.531-4.332,1.25V6.339h-3.404v1.617l1.293,0.111v8.581l-1.293,0.11v1.595h4.676v-1.595l-1.271-0.11V8.788
		c1.723-0.699,3.072-1.075,4.1-1.075c1.801,0,2.193,0.787,2.193,2.968v7.674H520.332z M503.895,1.446h-2.158v2.668h2.158V1.446z
		 M505.119,18.354v-1.617l-1.258-0.088V6.339h-3.416v1.617l1.291,0.111v8.581l-1.291,0.088v1.617H505.119z M498.816,7.779V6.03
		c-1.836,0-3.418,0.376-4.664,1.273V6.339h-3.371v1.617l1.293,0.111v8.581l-1.293,0.11v1.595h4.676v-1.595l-1.27-0.11V8.809
		C495.18,8.212,497.107,7.779,498.816,7.779 M485.264,16.162c-0.541,0.333-2.078,0.963-3.615,0.963
		c-1.289,0-2.191-0.366-2.191-1.727V14.81c0-1.927,1.121-2.226,3.867-2.226h1.939V16.162z M488.703,18.354v-1.595l-1.291-0.11
		v-6.423c0-2.733-0.682-4.195-5.035-4.195c-2.018,0-3.82,0.397-4.211,0.531V9.02h1.65l0.217-1.262
		c0.775-0.045,1.443-0.067,2.172-0.067c2.609,0,3.059,0.465,3.059,2.535v0.875h-1.939c-3.648,0-6.014,0.543-6.014,3.709v0.443
		c0,2.392,1.465,3.399,3.902,3.399c1.961,0,3.371-0.609,4.166-1.107v0.809H488.703z M473.027,11.444h-6.775v-0.21
		c0-1.473,0.404-3.499,3.404-3.499c3.027,0,3.371,2.026,3.371,3.499V11.444z M475.232,13.061v-0.874
		c0-4.031-1.754-6.157-5.609-6.157c-3.695,0-5.529,2.137-5.529,5.923v0.919c0,3.886,1.35,5.78,5.979,5.78
		c2.158,0,3.764-0.255,4.664-0.475v-1.573c-1.246,0.199-3.105,0.342-4.57,0.342c-3.602,0-3.926-1.572-3.926-3.643v-0.244H475.232z
		 M462.385,18.354v-1.595l-1.291-0.11V1.446h-3.385v1.617l1.271,0.11v13.476l-1.271,0.11v1.595H462.385z M455.297,18.287v-3.233
		h-1.709l-0.23,1.75c-0.68,0.022-1.432,0.033-2.146,0.033c-3.324,0-4.939-1.262-4.939-5.259v-2.68c0-3.996,1.615-5.249,4.939-5.249
		c0.715,0,1.467,0.045,2.146,0.067l0.23,1.705h1.709V2.232c-0.715-0.134-2.469-0.366-4.086-0.366c-4.018,0-7.111,1.329-7.111,7.031
		v2.68c0,5.702,3.094,7.075,7.111,7.075C452.828,18.652,454.582,18.397,455.297,18.287 M437.197,18.354v-1.595l-1.27-0.11V1.446
		h-3.404v1.617l1.291,0.11v13.476l-1.291,0.11v1.595H437.197z M427.027,16.162c-0.543,0.333-2.1,0.963-3.637,0.963
		c-1.293,0-2.193-0.366-2.193-1.727V14.81c0-1.927,1.121-2.226,3.869-2.226h1.961V16.162z M430.443,18.354v-1.595l-1.291-0.11
		v-6.423c0-2.733-0.682-4.195-5.033-4.195c-2.021,0-3.82,0.397-4.191,0.531V9.02h1.627l0.221-1.262
		c0.773-0.045,1.443-0.067,2.17-0.067c2.631,0,3.082,0.465,3.082,2.535v0.875h-1.961c-3.648,0-5.994,0.543-5.994,3.709v0.443
		c0,2.392,1.443,3.399,3.881,3.399c1.961,0,3.371-0.609,4.166-1.107v0.809H430.443z M417.25,18.354v-1.595l-1.27-0.11V10.68
		c0-2.922-0.623-4.65-4.088-4.65c-1.443,0-2.828,0.531-4.35,1.25V6.339h-3.385v1.617l1.27,0.111v8.581l-1.27,0.11v1.595h4.676
		v-1.595l-1.291-0.11V8.788c1.74-0.699,3.092-1.075,4.119-1.075c1.801,0,2.17,0.787,2.17,2.968v7.674H417.25z M399.623,13.216
		c0,2.602-1.061,3.709-3.451,3.709c-2.379,0-3.418-1.107-3.418-3.709v-1.749c0-2.591,1.074-3.709,3.418-3.709
		c2.391,0,3.451,1.118,3.451,3.709V13.216z M401.746,13.216v-1.749c0-3.488-1.891-5.437-5.574-5.437
		c-3.648,0-5.564,1.949-5.564,5.437v1.749c0,3.499,1.916,5.437,5.564,5.437C399.855,18.652,401.746,16.714,401.746,13.216
		 M387.629,1.446h-2.158v2.668h2.158V1.446z M388.854,18.354v-1.617l-1.26-0.088V6.339h-3.416v1.617l1.293,0.111v8.581l-1.293,0.088
		v1.617H388.854z M381.939,18.331v-1.36c-0.404,0.043-1.434,0.11-2.158,0.11c-1.215,0-1.318-0.222-1.318-1.572v-7.53h3.477v-1.64
		h-3.477V3.217h-2.146v3.122h-2.643v1.461l2.643,0.178v7.618c0,2.269,0.854,3.055,3.232,3.055
		C380.543,18.652,381.58,18.443,381.939,18.331 M369.76,16.162c-0.543,0.333-2.078,0.963-3.635,0.963
		c-1.271,0-2.172-0.366-2.172-1.727V14.81c0-1.927,1.098-2.226,3.867-2.226h1.939V16.162z M373.178,18.354v-1.595l-1.271-0.11
		v-6.423c0-2.733-0.703-4.195-5.033-4.195c-2.02,0-3.844,0.397-4.213,0.531V9.02h1.629l0.219-1.262
		c0.797-0.045,1.443-0.067,2.193-0.067c2.607,0,3.059,0.465,3.059,2.535v0.875h-1.939c-3.67,0-6.014,0.543-6.014,3.709v0.443
		c0,2.392,1.443,3.399,3.9,3.399c1.939,0,3.371-0.609,4.145-1.107v0.809H373.178z M360.098,3.738V2.121h-4.662v1.595l1.291,0.11
		v8.848c0,1.007,0.014,2.27,0.105,3.555h-0.047c-0.416-0.875-0.992-1.983-1.408-2.769l-6.154-11.339h-4.432v1.617l1.293,0.111v12.8
		l-1.293,0.11v1.595h4.617v-1.595l-1.293-0.11V7.347c0-1.14-0.045-2.325-0.104-3.388h0.045c0.451,0.964,0.994,1.938,1.432,2.746
		l6.211,11.649h3.107V3.849L360.098,3.738z"/>
	<path style="clip-path:url(#SVGID_2_);fill:#264A63;" d="M11.974,26.897h14.651v-8.49H11.974V9.802h11.009
		c-3.103-3.866-6.193-7.232-7.653-8.784H0.998v42.098h10.976V26.897z M67.769,12.135c0-2.742,2.92-3.565,5.255-3.565
		c3.326,0,6.881,1.23,6.714,5.025h10.854C90.53,4.19,82.189,0.165,73.899,0.165c-1.956,0-3.998,0.224-5.966,0.698
		C66.53,2.349,61.216,8.03,56.965,13.867c0.542,6.852,6.47,9.384,12.149,10.999c6.005,1.679,11.958,2.389,11.958,6.068
		c0,3.097-3.377,4.265-6.651,4.265c-4.608,0-7.643-1.574-7.883-6.474H55.685c0.052,10.665,8.518,14.878,18.089,14.878
		c9.176,0,18.164-3.378,18.164-13.962c0-7.528-6.068-10.322-12.084-12.021C73.774,15.931,67.769,15.346,67.769,12.135
		 M121.542,29.584c0,3.47-2.422,4.719-5.902,4.719h-8.784v-9.668h8.784C118.941,24.635,121.542,25.863,121.542,29.584
		 M119.833,13.546c0,2.997-2.6,4.004-4.486,4.004h-8.491V9.468h8.491C117.652,9.468,119.833,10.474,119.833,13.546 M130.797,11.534
		c0-8.785-7.956-10.671-15.211-10.556H95.891v42.098h20.221c9.025,0,16.394-3.061,16.394-13.083c0-4.768-2.767-8.668-7.253-9.969
		C128.554,18.379,130.797,15.307,130.797,11.534"/>
	<path style="clip-path:url(#SVGID_2_);fill:#5DADA3;" d="M39.649,18.223C34.523,11.055,24.336,1.846,23.436,1.103l-6.219-0.127
		c0,0,13.563,14.57,16.081,22.614c0.629,1.246,1.275,3.074,1.837,5.286c0.422-2.258,0.946-4.128,1.594-5.414
		C37.221,21.904,38.262,20.108,39.649,18.223 M46.181,7.913c0-2.832-2.359-5.126-5.274-5.126s-5.275,2.294-5.275,5.126
		c0,2.832,2.359,5.125,5.275,5.125S46.181,10.745,46.181,7.913 M61.365,1.105h-3.119c-3.973,3.328-17.132,15.497-19.379,22.668
		c-1.346,2.676-1.98,7.788-2.25,14.079c0.141,1.621,0.225,3.33,0.25,5.085h3.994c0.044-8.714,0.451-16.038,2.16-19.439
		C45.268,16.315,57.618,4.369,61.365,1.105 M65.526,1.105h-2.811c-3.993,3.602-15.299,15.072-17.493,22.06
		c-1.73,3.455-2.133,10.919-2.223,19.772h3.924c0.032-8.596,0.57-15.869,2.252-19.229C51.692,15.665,65.526,1.105,65.526,1.105"/>
	<g style="clip-path:url(#SVGID_2_);">
		<text transform="matrix(1.0875 0 0 1 141.8936 17.7324)"><tspan x="0" y="0" style="fill:#264A63; font-family:'SohoStd'; font-size:21.5351;">F</tspan><tspan x="12.06" y="0" style="fill:#264A63; font-family:'SohoStd'; font-size:21.5351;">ami</tspan><tspan x="49.961" y="0" style="fill:#264A63; font-family:'SohoStd'; font-size:21.5351;">l</tspan><tspan x="55.301" y="0" style="fill:#264A63; font-family:'SohoStd'; font-size:21.5351;">y &amp; </tspan><tspan x="93.246" y="0" style="fill:#264A63; font-family:'SohoStd'; font-size:21.5351; letter-spacing:-1.839;">Y</tspan><tspan x="105.047" y="0" style="fill:#264A63; font-family:'SohoStd'; font-size:21.5351;">o</tspan><tspan x="116.955" y="0" style="fill:#264A63; font-family:'SohoStd'; font-size:21.5351;">u</tspan><tspan x="129.984" y="0" style="fill:#264A63; font-family:'SohoStd'; font-size:21.5351;">th </tspan></text>
	</g>
	<g style="clip-path:url(#SVGID_2_);">
		<text transform="matrix(1.0875 0 0 1 141.8936 41.8721)"><tspan x="0" y="0" style="fill:#264A63; font-family:'SohoStd'; font-size:21.5351;">S</tspan><tspan x="12.512" y="0" style="fill:#264A63; font-family:'SohoStd'; font-size:21.5351;">erv</tspan><tspan x="46.86" y="0" style="fill:#264A63; font-family:'SohoStd'; font-size:21.5351;">i</tspan><tspan x="52.459" y="0" style="fill:#264A63; font-family:'SohoStd'; font-size:21.5351;">c</tspan><tspan x="62.343" y="0" style="fill:#264A63; font-family:'SohoStd'; font-size:21.5351;">es </tspan><tspan x="89.305" y="0" style="fill:#264A63; font-family:'SohoStd'; font-size:21.5351;">B</tspan><tspan x="103.28" y="0" style="fill:#264A63; font-family:'SohoStd'; font-size:21.5351;">u</tspan><tspan x="117.063" y="0" style="fill:#264A63; font-family:'SohoStd'; font-size:21.5351;">r</tspan><tspan x="125.096" y="0" style="fill:#264A63; font-family:'SohoStd'; font-size:21.5351;">e</tspan><tspan x="137.155" y="0" style="fill:#264A63; font-family:'SohoStd'; font-size:21.5351;">a</tspan><tspan x="148.849" y="0" style="fill:#264A63; font-family:'SohoStd'; font-size:21.5351;">u</tspan></text>
	</g>
	
		<line style="clip-path:url(#SVGID_2_);fill:none;stroke:#5DADA3;stroke-width:0.593;" x1="331.398" y1="46.165" x2="331.398" y2="0.165"/>
</g>
</svg>
